INDEX VERSION 1.129+/Users/camilo2/Documents/CS210/.metadata/.plugins/org.eclipse.jdt.core
3348459436.index
2793427791.index
1259260547.index
2272759056.index
411166081.index
3747636228.index
31031388.index
2885545355.index
2545238116.index
2456149042.index
2211732093.index
1765565202.index
1271342938.index
1833648217.index
3712507179.index
2825344146.index
1210982435.index
1542969262.index
3794497040.index
1181300158.index
4276456779.index
3302703152.index
4259282187.index
3321539481.index
156905802.index
4253955704.index
1384487945.index
3266567714.index
1769317737.index
2178737305.index
1819685514.index
3270581164.index
